<?xml version="1.0" encoding="utf-8"?>
<!-- Generator: Adobe Illustrator 16.0.2, SVG Export Plug-In . SVG Version: 6.00 Build 0)  -->
<!DOCTYPE svg PUBLIC "-//W3C//DTD SVG 1.1//EN" "http://www.w3.org/Graphics/SVG/1.1/DTD/svg11.dtd">
<svg version="1.1" id="Layer_1" xmlns="http://www.w3.org/2000/svg" xmlns:xlink="http://www.w3.org/1999/xlink" x="0px" y="0px"
	 width="583.122px" height="555.054px" viewBox="0 0 583.122 555.054" enable-background="new 0 0 583.122 555.054"
	 xml:space="preserve">
<path fill="#F2CA6A" d="M105.449,535.137c3.766-22.127,7.809-46.07,11.912-69.99c5.691-33.136,11.142-66.296,17.35-99.349
	c1.419-7.568-0.301-12.309-5.728-17.53c-38.719-37.407-77.185-75.092-115.64-112.77c-6.882-6.756-15.894-13.638-12.669-24.479
	c3.272-10.991,14.51-11.551,24.112-12.977c53.579-7.983,107.121-16.141,160.772-23.583c7.941-1.095,11.515-4.584,14.739-11.147
	c24.184-49.271,48.669-98.41,73.07-147.591c0.818-1.666,1.227-3.856,2.527-4.945c4.945-4.061,10.347-11.027,15.256-10.769
	c5.583,0.283,12.971,5.98,15.87,11.329c12.682,23.27,24.04,47.262,35.808,71.013c13.596,27.439,27.288,54.83,40.596,82.401
	c2.924,6.064,6.63,8.615,13.416,9.571c54.372,7.688,108.673,15.871,162.985,23.968c3.669,0.553,7.388,1.246,10.889,2.466
	c13.019,4.519,15.906,12.82,8.122,24.148c-2.936,4.26-6.715,8.007-10.443,11.653C530.239,274,492.11,311.474,453.667,348.652
	c-5.173,5.006-6.605,9.506-5.354,16.593c9.578,54.06,18.758,108.203,27.878,162.348c0.782,4.692,1.167,9.77,0.276,14.391
	c-2.178,11.479-9.697,15.545-20.646,11.61c-4.548-1.637-8.844-3.982-13.15-6.221c-47.299-24.762-94.645-49.427-141.81-74.466
	c-6.63-3.525-11.804-3.658-18.529-0.084c-47.142,25.051-94.5,49.716-141.797,74.466c-3.634,1.913-7.231,3.935-11.033,5.499
	C115.484,558.599,105.57,552.018,105.449,535.137"/>
<g>
	<g>
		<g>
			<defs>
				<rect id="SVGID_1_" x="0.049" y="0.001" width="291.512" height="554.856"/>
			</defs>
			<clipPath id="SVGID_2_">
				<use xlink:href="#SVGID_1_"  overflow="visible"/>
			</clipPath>
		</g>
	</g>
	<g>
		<g>
			<defs>
				<rect id="SVGID_3_" x="0.049" y="0.001" width="291.512" height="554.856"/>
			</defs>
			<clipPath id="SVGID_4_">
				<use xlink:href="#SVGID_3_"  overflow="visible"/>
			</clipPath>
			<g clip-path="url(#SVGID_4_)">
				<path fill="#E6A02C" d="M291.561,0.073c-0.145-0.012-0.265-0.06-0.397-0.06c-4.933-0.258-10.312,6.702-15.269,10.769
					c-1.312,1.083-1.697,3.261-2.539,4.939c-24.389,49.187-48.862,98.32-73.046,147.591c-3.236,6.569-6.81,10.053-14.763,11.154
					c-53.626,7.423-107.193,15.593-160.748,23.565c-9.625,1.443-20.863,1.997-24.112,12.988
					c-3.236,10.841,5.764,17.729,12.67,24.479c38.442,37.678,76.896,75.375,115.64,112.758c5.402,5.233,7.147,9.95,5.727,17.555
					c-6.208,33.04-11.683,66.2-17.374,99.336c-4.103,23.92-8.146,47.852-11.9,70.002c0.108,16.857,10.035,23.45,24.064,17.64
					c3.778-1.564,7.376-3.61,11.009-5.499c47.298-24.762,94.68-49.403,141.821-74.466c3.321-1.781,6.281-2.635,9.217-2.623V0.073z"
					/>
			</g>
		</g>
	</g>
	<g>
		<g>
			<defs>
				<rect id="SVGID_5_" x="0.049" y="0.001" width="291.512" height="554.856"/>
			</defs>
			<clipPath id="SVGID_6_">
				<use xlink:href="#SVGID_5_"  overflow="visible"/>
			</clipPath>
		</g>
	</g>
</g>
</svg>
